…
So you can see there are quite a few individuals who are confirmed speakers or on the organzing committee for multiple single-cell conferences in 2020 confirming my quick scan of the websites. There are at least two individuals who are scheduled to attend three out of the six single-cell conferences!

Let’s do a bit of digging to see who these individuals are.
Just think if you miss them at one conference, you might be able to catch them at another later in the year! :)

Data wrangling

Next, I converted the list of names for each conference into a dataframe with one column referring to the conference name, the second is the name of the individual.

df <- tibble(name_conf = names(unlist(data_list)),
             name_ind = c(unlist(data_list)))
df

## # A tibble: 165 x 2
##    name_conf  name_ind         
##    <chr>      <chr>            
##  1 wellcome1  Ellen Rothenberg 
##  2 wellcome2  Sarah Teichmann  
##  3 wellcome3  Fabian Theis     
##  4 wellcome4  Itai Yanai       
##  5 wellcome5  Kathy Cheah      
##  6 wellcome6  Polly Fordyce    
##  7 wellcome7  Eileen Furlong   
##  8 wellcome8  Gillian Griffiths
##  9 wellcome9  Guoji Guo        
## 10 wellcome10 Muzz Haniffa     
## # … with 155 more rows
…
Next, I split the full names of the individuals into first and last names and converted the data frame into a tibble.

df <- cbind(df, plyr::ldply(stringr::str_split(
                df$name_ind, pattern = " ", n = 2)))
colnames(df)[match(c("V1", "V2"), colnames(df))] <- 
  c("name_first", "name_last")
df <- as_tibble(df)
df

## # A tibble: 165 x 4
##    name_conf name_ind          name_first name_last 
##    <chr>     <chr>             <chr>      <chr>     
##  1 wellcome  Ellen Rothenberg  Ellen      Rothenberg
##  2 wellcome  Sarah Teichmann   Sarah      Teichmann 
##  3 wellcome  Fabian Theis      Fabian     Theis     
##  4 wellcome  Itai Yanai        Itai       Yanai     
##  5 wellcome  Kathy Cheah       Kathy      Cheah     
##  6 wellcome  Polly Fordyce     Polly      Fordyce   
##  7 wellcome  Eileen Furlong    Eileen     Furlong   
##  8 wellcome  Gillian Griffiths Gillian    Griffiths 
##  9 wellcome  Guoji Guo         Guoji      Guo       
## 10 wellcome  Muzlifah Haniffa  Muzlifah   Haniffa   
## # … with 155 more rows
…
## Parsed with column specification:
## cols(
##   name = col_character(),
##   gender = col_character(),
##   proportion_female = col_double(),
##   proportion_male = col_double()
## )

df_genderize

## # A tibble: 129 x 4
##    name     gender proportion_female proportion_male
##    <chr>    <chr>              <dbl>           <dbl>
##  1 Ellen    female            0.98            0.02  
##  2 Sarah    female            0.98            0.02  
##  3 Fabian   male              0.01            0.99  
##  4 Itai     male              0.0900          0.91  
##  5 Kathy    female            0.98            0.02  
##  6 Polly    female            0.9             0.100 
##  7 Eileen   female            0.98            0.02  
##  8 Gillian  female            0.92            0.0800
##  9 Guoji    male              0               1     
## 10 Muzlifah female            1               0     
## # … with 119 more rows

We see for each first name, we get returned the proportion of male (or female) names.

Then, I combine our data frame (df) above with the df_genderize data frame using a left_join() function from dplyr

colnames(df_genderize)[1] <- "name_first"
df <- dplyr::left_join(df, df_genderize, by = "name_first")

df %>% 
  select(name_conf, name_ind, gender, proportion_female, proportion_male)

## # A tibble: 165 x 5
##    name_conf name_ind          gender proportion_female proportion_male
##    <chr>     <chr>             <chr>              <dbl>           <dbl>
##  1 wellcome  Ellen Rothenberg  female            0.98            0.02  
##  2 wellcome  Sarah Teichmann   female            0.98            0.02  
##  3 wellcome  Fabian Theis      male              0.01            0.99  
##  4 wellcome  Itai Yanai        male              0.0900          0.91  
##  5 wellcome  Kathy Cheah       female            0.98            0.02  
##  6 wellcome  Polly Fordyce     female            0.9             0.100 
##  7 wellcome  Eileen Furlong    female            0.98            0.02  
##  8 wellcome  Gillian Griffiths female            0.92            0.0800
##  9 wellcome  Guoji Guo         male              0               1     
## 10 wellcome  Muzlifah Haniffa  female            1               0     
## # … with 155 more rows
…
